{
	"__ver": "twz:391",
	"_id": "UDAb8dBbS42TLgNOvA3sTw",
	"css_dependencies": [
		{
			"_disp": "main.css",
			"_id": "3ieIL74dQPu9arX95xpjZg",
			"name": "main.css",
			"path": "resources"
		},
		{
			"_disp": "bootstrap.min.css",
			"_id": "o4W541R8SOaAsLdTAFRwBw",
			"name": "bootstrap.min.css",
			"path": "bower_components/bootstrap/dist/css"
		}
	],
	"css_dependencies_fs": [
		"bower_components/fontawesome/css/all.css"
	],
	"js_dependencies": [
		{
			"_disp": "rainbowvis.js",
			"_id": "Zr5-sgxfQRKReDdOnwoQBw",
			"name": "rainbowvis.js",
			"path": "public"
		}
	],
	"js_dependencies_fs": [
		"bower_components/angular-bootstrap/ui-bootstrap-tpls.js",
		"bower_components/chart.js/dist/Chart.bundle.min.js",
		"bower_components/chartjs-plugin-annotation/chartjs-plugin-annotation.js"
	],
	"module": {
		"_disp": "twzBrowser",
		"_id": "4XJkd5zYRAe6djpKdYmrww",
		"name": "twzBrowser",
		"path": "module"
	},
	"name": "twz_browser.html",
	"path": "/",
	"rolespec": [
	]
}