{
	"__ver": "twz:1",
	"_id": "uHKMwjIbTLuBbIa7V68FXw",
	"doc": "",
	"module": {
		"_disp": "twzBrowser",
		"_id": "4XJkd5zYRAe6djpKdYmrww"
	},
	"name": "dateEditor",
	"parameters": [
	],
	"path": "twz/directive",
	"type": "directive"
}