{
	"__ver": "twz:28",
	"_id": "lJ0gQxR6SjSLv89X3Dorjg",
	"doc": "",
	"module": {
		"_disp": "twzBrowser",
		"_id": "4XJkd5zYRAe6djpKdYmrww"
	},
	"name": "EventEditorDialog",
	"parameters": [
		"$uibModal",
		"$rootScope",
		"NoonWebService"
	],
	"path": "/twz",
	"type": "factory"
}