{
	"__ver": "twz:1",
	"_id": "oWpgIbtCSM-G4Ulh2U4S5A",
	"description": "Dervied from a modified process to exclude the \"half-twist\" that Matthew Watkins objected to in the original numberset derivation.",
	"key": "watkins",
	"name": "Watkins",
	"type": "quantification_values",
	"values": [
		0,
		0,
		0,
		2,
		7,
		4,
		3,
		2,
		6,
		8,
		13,
		5,
		26,
		25,
		24,
		15,
		13,
		16,
		14,
		19,
		17,
		24,
		20,
		25,
		63,
		60,
		56,
		55,
		47,
		53,
		36,
		38,
		39,
		43,
		43,
		41,
		28,
		20,
		26,
		27,
		23,
		26,
		27,
		26,
		26,
		25,
		23,
		23,
		67,
		60,
		55,
		59,
		57,
		55,
		41,
		38,
		44,
		29,
		28,
		26,
		52,
		53,
		46,
		59,
		60,
		60,
		42,
		42,
		43,
		43,
		42,
		41,
		45,
		41,
		46,
		23,
		35,
		34,
		21,
		21,
		19,
		51,
		40,
		49,
		29,
		29,
		31,
		40,
		36,
		33,
		29,
		26,
		30,
		16,
		18,
		14,
		66,
		64,
		60,
		50,
		61,
		53,
		41,
		39,
		41,
		32,
		34,
		35,
		30,
		31,
		29,
		41,
		39,
		44,
		37,
		44,
		42,
		12,
		11,
		20,
		28,
		32,
		27,
		32,
		34,
		35,
		52,
		53,
		54,
		39,
		39,
		41,
		34,
		37,
		36,
		38,
		38,
		40,
		55,
		41,
		53,
		40,
		39,
		35,
		55,
		54,
		43,
		45,
		47,
		47,
		40,
		39,
		41,
		31,
		29,
		26,
		24,
		22,
		24,
		20,
		23,
		25,
		30,
		26,
		37,
		74,
		80,
		70,
		32,
		35,
		37,
		32,
		30,
		31,
		32,
		28,
		40,
		39,
		34,
		41,
		27,
		27,
		26,
		26,
		32,
		30,
		24,
		26,
		28,
		32,
		25,
		26,
		36,
		36,
		36,
		38,
		43,
		38,
		27,
		26,
		30,
		32,
		37,
		29,
		26,
		29,
		30,
		39,
		37,
		40,
		26,
		21,
		23,
		20,
		22,
		21,
		63,
		60,
		56,
		55,
		47,
		53,
		30,
		26,
		29,
		37,
		37,
		35,
		52,
		44,
		50,
		37,
		47,
		48,
		31,
		32,
		30,
		33,
		31,
		35,
		61,
		54,
		49,
		53,
		51,
		49,
		29,
		32,
		32,
		53,
		48,
		50,
		46,
		47,
		40,
		53,
		54,
		54,
		42,
		42,
		43,
		43,
		42,
		41,
		45,
		41,
		46,
		35,
		35,
		34,
		33,
		33,
		31,
		27,
		26,
		25,
		23,
		23,
		25,
		34,
		30,
		27,
		31,
		20,
		28,
		10,
		12,
		8,
		84,
		82,
		78,
		68,
		79,
		71,
		43,
		45,
		41,
		38,
		40,
		41,
		24,
		25,
		23,
		35,
		33,
		38,
		43,
		50,
		48,
		18,
		17,
		26,
		34,
		38,
		33,
		38,
		40,
		41,
		34,
		31,
		30,
		33,
		33,
		33,
		22,
		25,
		24,
		26,
		26,
		28,
		79,
		65,
		77,
		64,
		63,
		59,
		43,
		42,
		35,
		45,
		47,
		47,
		34,
		33,
		35,
		45,
		41,
		52,
		36,
		34,
		36,
		32,
		35,
		37,
		22,
		20,
		17,
		44,
		50,
		40,
		32,
		33,
		33,
		40,
		44,
		39,
		32,
		32,
		40,
		39,
		34,
		41,
		33,
		33,
		32,
		32,
		38,
		36,
		22,
		20,
		20,
		12,
		13,
		10
	]
}