{
	"__ver": "twz:5",
	"_id": "8FHDa52RQyeEPiudUkXqpA",
	"key": "sys.dbui.perspective.default.NumberSet",
	"system": false,
	"value": {
		"edit": {
			"layout": [
				{
					"rows": [
						[
							"name",
							"key"
						],
						[
							"type"
						],
						[
							"description"
						],
						[
							"values"
						]
					]
				}
			]
		},
		"list": {
			"fields": [
				"key",
				"name",
				"type",
				"description"
			]
		},
		"view": {
			"layout": [
				"description",
				"key",
				"name",
				"owner",
				"type",
				"values"
			]
		}
	}
}