{
	"__ver": "twz:10",
	"_id": "sqKTCLv9Q2OyLjvJKYZTWw",
	"doc": "MISMATCH: k = 1-5 and 7-11 and 119\nFor generating the original numberset from the original I Ching first-order-differences\n(not actually used by the Timewave calculator)\n\nhttps://www.fourmilab.ch/rpkp/meyer.html",
	"name": "WatkinsNumbersetCalc"
}